simulation/qsim/Mipsv3.msim.vcd
$comment
	File created using the following command:
		vcd file Mipsv3.msim.vcd -direction
$end
$date
	Mon Jul 03 22:39:31 2023
$end
$version
	ModelSim Version 10.5b
$end
$timescale
	1ps
$end

$scope module main_vhd_vec_tst $end
$var wire 1 ! clock $end
$var wire 1 " current_adress [7] $end
$var wire 1 # current_adress [6] $end
$var wire 1 $ current_adress [5] $end
$var wire 1 % current_adress [4] $end
$var wire 1 & current_adress [3] $end
$var wire 1 ' current_adress [2] $end
$var wire 1 ( current_adress [1] $end
$var wire 1 ) current_adress [0] $end
$var wire 1 * read_register [31] $end
$var wire 1 + read_register [30] $end
$var wire 1 , read_register [29] $end
$var wire 1 - read_register [28] $end
$var wire 1 . read_register [27] $end
$var wire 1 / read_register [26] $end
$var wire 1 0 read_register [25] $end
$var wire 1 1 read_register [24] $end
$var wire 1 2 read_register [23] $end
$var wire 1 3 read_register [22] $end
$var wire 1 4 read_register [21] $end
$var wire 1 5 read_register [20] $end
$var wire 1 6 read_register [19] $end
$var wire 1 7 read_register [18] $end
$var wire 1 8 read_register [17] $end
$var wire 1 9 read_register [16] $end
$var wire 1 : read_register [15] $end
$var wire 1 ; read_register [14] $end
$var wire 1 < read_register [13] $end
$var wire 1 = read_register [12] $end
$var wire 1 > read_register [11] $end
$var wire 1 ? read_register [10] $end
$var wire 1 @ read_register [9] $end
$var wire 1 A read_register [8] $end
$var wire 1 B read_register [7] $end
$var wire 1 C read_register [6] $end
$var wire 1 D read_register [5] $end
$var wire 1 E read_register [4] $end
$var wire 1 F read_register [3] $end
$var wire 1 G read_register [2] $end
$var wire 1 H read_register [1] $end
$var wire 1 I read_register [0] $end
$var wire 1 J sub_z [5] $end
$var wire 1 K sub_z [4] $end
$var wire 1 L sub_z [3] $end
$var wire 1 M sub_z [2] $end
$var wire 1 N sub_z [1] $end
$var wire 1 O sub_z [0] $end

$scope module i1 $end
$var wire 1 P gnd $end
$var wire 1 Q vcc $end
$var wire 1 R unknown $end
$var wire 1 S devoe $end
$var wire 1 T devclrn $end
$var wire 1 U devpor $end
$var wire 1 V ww_devoe $end
$var wire 1 W ww_devclrn $end
$var wire 1 X ww_devpor $end
$var wire 1 Y ww_current_adress [7] $end
$var wire 1 Z ww_current_adress [6] $end
$var wire 1 [ ww_current_adress [5] $end
$var wire 1 \ ww_current_adress [4] $end
$var wire 1 ] ww_current_adress [3] $end
$var wire 1 ^ ww_current_adress [2] $end
$var wire 1 _ ww_current_adress [1] $end
$var wire 1 ` ww_current_adress [0] $end
$var wire 1 a ww_clock $end
$var wire 1 b ww_read_register [31] $end
$var wire 1 c ww_read_register [30] $end
$var wire 1 d ww_read_register [29] $end
$var wire 1 e ww_read_register [28] $end
$var wire 1 f ww_read_register [27] $end
$var wire 1 g ww_read_register [26] $end
$var wire 1 h ww_read_register [25] $end
$var wire 1 i ww_read_register [24] $end
$var wire 1 j ww_read_register [23] $end
$var wire 1 k ww_read_register [22] $end
$var wire 1 l ww_read_register [21] $end
$var wire 1 m ww_read_register [20] $end
$var wire 1 n ww_read_register [19] $end
$var wire 1 o ww_read_register [18] $end
$var wire 1 p ww_read_register [17] $end
$var wire 1 q ww_read_register [16] $end
$var wire 1 r ww_read_register [15] $end
$var wire 1 s ww_read_register [14] $end
$var wire 1 t ww_read_register [13] $end
$var wire 1 u ww_read_register [12] $end
$var wire 1 v ww_read_register [11] $end
$var wire 1 w ww_read_register [10] $end
$var wire 1 x ww_read_register [9] $end
$var wire 1 y ww_read_register [8] $end
$var wire 1 z ww_read_register [7] $end
$var wire 1 { ww_read_register [6] $end
$var wire 1 | ww_read_register [5] $end
$var wire 1 } ww_read_register [4] $end
$var wire 1 ~ ww_read_register [3] $end
$var wire 1 !! ww_read_register [2] $end
$var wire 1 "! ww_read_register [1] $end
$var wire 1 #! ww_read_register [0] $end
$var wire 1 $! ww_sub_z [5] $end
$var wire 1 %! ww_sub_z [4] $end
$var wire 1 &! ww_sub_z [3] $end
$var wire 1 '! ww_sub_z [2] $end
$var wire 1 (! ww_sub_z [1] $end
$var wire 1 )! ww_sub_z [0] $end
$var wire 1 *! \inst5|altsyncram_component|auto_generated|ram_block1a0_PORTAADDR_bus\ [7] $end
$var wire 1 +! \inst5|altsyncram_component|auto_generated|ram_block1a0_PORTAADDR_bus\ [6] $end
$var wire 1 ,! \inst5|altsyncram_component|auto_generated|ram_block1a0_PORTAADDR_bus\ [5] $end
$var wire 1 -! \inst5|altsyncram_component|auto_generated|ram_block1a0_PORTAADDR_bus\ [4] $end
$var wire 1 .! \inst5|altsyncram_component|auto_generated|ram_block1a0_PORTAADDR_bus\ [3] $end
$var wire 1 /! \inst5|altsyncram_component|auto_generated|ram_block1a0_PORTAADDR_bus\ [2] $end
$var wire 1 0! \inst5|altsyncram_component|auto_generated|ram_block1a0_PORTAADDR_bus\ [1] $end
$var wire 1 1! \inst5|altsyncram_component|auto_generated|ram_block1a0_PORTAADDR_bus\ [0] $end
$var wire 1 2! \inst5|altsyncram_component|auto_generated|ram_block1a0_PORTADATAOUT_bus\ [39] $end
$var wire 1 3! \inst5|altsyncram_component|auto_generated|ram_block1a0_PORTADATAOUT_bus\ [38] $end
$var wire 1 4! \inst5|altsyncram_component|auto_generated|ram_block1a0_PORTADATAOUT_bus\ [37] $end
$var wire 1 5! \inst5|altsyncram_component|auto_generated|ram_block1a0_PORTADATAOUT_bus\ [36] $end
$var wire 1 6! \inst5|altsyncram_component|auto_generated|ram_block1a0_PORTADATAOUT_bus\ [35] $end
$var wire 1 7! \inst5|altsyncram_component|auto_generated|ram_block1a0_PORTADATAOUT_bus\ [34] $end
$var wire 1 8! \inst5|altsyncram_component|auto_generated|ram_block1a0_PORTADATAOUT_bus\ [33] $end
$var wire 1 9! \inst5|altsyncram_component|auto_generated|ram_block1a0_PORTADATAOUT_bus\ [32] $end
$var wire 1 :! \inst5|altsyncram_component|auto_generated|ram_block1a0_PORTADATAOUT_bus\ [31] $end
$var wire 1 ;! \inst5|altsyncram_component|auto_generated|ram_block1a0_PORTADATAOUT_bus\ [30] $end
$var wire 1 <! \inst5|altsyncram_component|auto_generated|ram_block1a0_PORTADATAOUT_bus\ [29] $end
$var wire 1 =! \inst5|altsyncram_component|auto_generated|ram_block1a0_PORTADATAOUT_bus\ [28] $end
$var wire 1 >! \inst5|altsyncram_component|auto_generated|ram_block1a0_PORTADATAOUT_bus\ [27] $end
$var wire 1 ?! \inst5|altsyncram_component|auto_generated|ram_block1a0_PORTADATAOUT_bus\ [26] $end
$var wire 1 @! \inst5|altsyncram_component|auto_generated|ram_block1a0_PORTADATAOUT_bus\ [25] $end
$var wire 1 A! \inst5|altsyncram_component|auto_generated|ram_block1a0_PORTADATAOUT_bus\ [24] $end
$var wire 1 B! \inst5|altsyncram_component|auto_generated|ram_block1a0_PORTADATAOUT_bus\ [23] $end
$var wire 1 C! \inst5|altsyncram_component|auto_generated|ram_block1a0_PORTADATAOUT_bus\ [22] $end
$var wire 1 D! \inst5|altsyncram_component|auto_generated|ram_block1a0_PORTADATAOUT_bus\ [21] $end
$var wire 1 E! \inst5|altsyncram_component|auto_generated|ram_block1a0_PORTADATAOUT_bus\ [20] $end
$var wire 1 F! \inst5|altsyncram_component|auto_generated|ram_block1a0_PORTADATAOUT_bus\ [19] $end
$var wire 1 G! \inst5|altsyncram_component|auto_generated|ram_block1a0_PORTADATAOUT_bus\ [18] $end
$var wire 1 H! \inst5|altsyncram_component|auto_generated|ram_block1a0_PORTADATAOUT_bus\ [17] $end
$var wire 1 I! \inst5|altsyncram_component|auto_generated|ram_block1a0_PORTADATAOUT_bus\ [16] $end
$var wire 1 J! \inst5|altsyncram_component|auto_generated|ram_block1a0_PORTADATAOUT_bus\ [15] $end
$var wire 1 K! \inst5|altsyncram_component|auto_generated|ram_block1a0_PORTADATAOUT_bus\ [14] $end
$var wire 1 L! \inst5|altsyncram_component|auto_generated|ram_block1a0_PORTADATAOUT_bus\ [13] $end
$var wire 1 M! \inst5|altsyncram_component|auto_generated|ram_block1a0_PORTADATAOUT_bus\ [12] $end
$var wire 1 N! \inst5|altsyncram_component|auto_generated|ram_block1a0_PORTADATAOUT_bus\ [11] $end
$var wire 1 O! \inst5|altsyncram_component|auto_generated|ram_block1a0_PORTADATAOUT_bus\ [10] $end
$var wire 1 P! \inst5|altsyncram_component|auto_generated|ram_block1a0_PORTADATAOUT_bus\ [9] $end
$var wire 1 Q! \inst5|altsyncram_component|auto_generated|ram_block1a0_PORTADATAOUT_bus\ [8] $end
$var wire 1 R! \inst5|altsyncram_component|auto_generated|ram_block1a0_PORTADATAOUT_bus\ [7] $end
$var wire 1 S! \inst5|altsyncram_component|auto_generated|ram_block1a0_PORTADATAOUT_bus\ [6] $end
$var wire 1 T! \inst5|altsyncram_component|auto_generated|ram_block1a0_PORTADATAOUT_bus\ [5] $end
$var wire 1 U! \inst5|altsyncram_component|auto_generated|ram_block1a0_PORTADATAOUT_bus\ [4] $end
$var wire 1 V! \inst5|altsyncram_component|auto_generated|ram_block1a0_PORTADATAOUT_bus\ [3] $end
$var wire 1 W! \inst5|altsyncram_component|auto_generated|ram_block1a0_PORTADATAOUT_bus\ [2] $end
$var wire 1 X! \inst5|altsyncram_component|auto_generated|ram_block1a0_PORTADATAOUT_bus\ [1] $end
$var wire 1 Y! \inst5|altsyncram_component|auto_generated|ram_block1a0_PORTADATAOUT_bus\ [0] $end
$var wire 1 Z! \~QUARTUS_CREATED_GND~I_combout\ $end
$var wire 1 [! \clock~input_o\ $end
$var wire 1 \! \clock~inputCLKENA0_outclk\ $end
$var wire 1 ]! \inst6|Add0~21_sumout\ $end
$var wire 1 ^! \inst|address[0]~DUPLICATE_q\ $end
$var wire 1 _! \inst6|Add0~22\ $end
$var wire 1 `! \inst6|Add0~17_sumout\ $end
$var wire 1 a! \inst|address[1]~DUPLICATE_q\ $end
$var wire 1 b! \inst6|Add0~18\ $end
$var wire 1 c! \inst6|Add0~13_sumout\ $end
$var wire 1 d! \inst|address[2]~feeder_combout\ $end
$var wire 1 e! \inst6|Add0~14\ $end
$var wire 1 f! \inst6|Add0~9_sumout\ $end
$var wire 1 g! \inst|address[3]~feeder_combout\ $end
$var wire 1 h! \inst6|Add0~10\ $end
$var wire 1 i! \inst6|Add0~5_sumout\ $end
$var wire 1 j! \inst|address[4]~feeder_combout\ $end
$var wire 1 k! \inst6|Add0~6\ $end
$var wire 1 l! \inst6|Add0~1_sumout\ $end
$var wire 1 m! \inst|address[5]~feeder_combout\ $end
$var wire 1 n! \inst6|Add0~2\ $end
$var wire 1 o! \inst6|Add0~29_sumout\ $end
$var wire 1 p! \inst6|Add0~30\ $end
$var wire 1 q! \inst6|Add0~25_sumout\ $end
$var wire 1 r! \inst|address[7]~DUPLICATE_q\ $end
$var wire 1 s! \inst|address[2]~DUPLICATE_q\ $end
$var wire 1 t! \inst|address[4]~DUPLICATE_q\ $end
$var wire 1 u! \inst|address[5]~DUPLICATE_q\ $end
$var wire 1 v! \inst5|altsyncram_component|auto_generated|q_a\ [31] $end
$var wire 1 w! \inst5|altsyncram_component|auto_generated|q_a\ [30] $end
$var wire 1 x! \inst5|altsyncram_component|auto_generated|q_a\ [29] $end
$var wire 1 y! \inst5|altsyncram_component|auto_generated|q_a\ [28] $end
$var wire 1 z! \inst5|altsyncram_component|auto_generated|q_a\ [27] $end
$var wire 1 {! \inst5|altsyncram_component|auto_generated|q_a\ [26] $end
$var wire 1 |! \inst5|altsyncram_component|auto_generated|q_a\ [25] $end
$var wire 1 }! \inst5|altsyncram_component|auto_generated|q_a\ [24] $end
$var wire 1 ~! \inst5|altsyncram_component|auto_generated|q_a\ [23] $end
$var wire 1 !" \inst5|altsyncram_component|auto_generated|q_a\ [22] $end
$var wire 1 "" \inst5|altsyncram_component|auto_generated|q_a\ [21] $end
$var wire 1 #" \inst5|altsyncram_component|auto_generated|q_a\ [20] $end
$var wire 1 $" \inst5|altsyncram_component|auto_generated|q_a\ [19] $end
$var wire 1 %" \inst5|altsyncram_component|auto_generated|q_a\ [18] $end
$var wire 1 &" \inst5|altsyncram_component|auto_generated|q_a\ [17] $end
$var wire 1 '" \inst5|altsyncram_component|auto_generated|q_a\ [16] $end
$var wire 1 (" \inst5|altsyncram_component|auto_generated|q_a\ [15] $end
$var wire 1 )" \inst5|altsyncram_component|auto_generated|q_a\ [14] $end
$var wire 1 *" \inst5|altsyncram_component|auto_generated|q_a\ [13] $end
$var wire 1 +" \inst5|altsyncram_component|auto_generated|q_a\ [12] $end
$var wire 1 ," \inst5|altsyncram_component|auto_generated|q_a\ [11] $end
$var wire 1 -" \inst5|altsyncram_component|auto_generated|q_a\ [10] $end
$var wire 1 ." \inst5|altsyncram_component|auto_generated|q_a\ [9] $end
$var wire 1 /" \inst5|altsyncram_component|auto_generated|q_a\ [8] $end
$var wire 1 0" \inst5|altsyncram_component|auto_generated|q_a\ [7] $end
$var wire 1 1" \inst5|altsyncram_component|auto_generated|q_a\ [6] $end
$var wire 1 2" \inst5|altsyncram_component|auto_generated|q_a\ [5] $end
$var wire 1 3" \inst5|altsyncram_component|auto_generated|q_a\ [4] $end
$var wire 1 4" \inst5|altsyncram_component|auto_generated|q_a\ [3] $end
$var wire 1 5" \inst5|altsyncram_component|auto_generated|q_a\ [2] $end
$var wire 1 6" \inst5|altsyncram_component|auto_generated|q_a\ [1] $end
$var wire 1 7" \inst5|altsyncram_component|auto_generated|q_a\ [0] $end
$var wire 1 8" \inst|address\ [7] $end
$var wire 1 9" \inst|address\ [6] $end
$var wire 1 :" \inst|address\ [5] $end
$var wire 1 ;" \inst|address\ [4] $end
$var wire 1 <" \inst|address\ [3] $end
$var wire 1 =" \inst|address\ [2] $end
$var wire 1 >" \inst|address\ [1] $end
$var wire 1 ?" \inst|address\ [0] $end
$var wire 1 @" \inst6|ALT_INV_Add0~13_sumout\ $end
$var wire 1 A" \inst6|ALT_INV_Add0~9_sumout\ $end
$var wire 1 B" \inst6|ALT_INV_Add0~5_sumout\ $end
$var wire 1 C" \inst6|ALT_INV_Add0~1_sumout\ $end
$var wire 1 D" \inst|ALT_INV_address[0]~DUPLICATE_q\ $end
$var wire 1 E" \inst|ALT_INV_address[1]~DUPLICATE_q\ $end
$var wire 1 F" \ALT_INV_clock~inputCLKENA0_outclk\ $end
$var wire 1 G" \inst|ALT_INV_address\ [7] $end
$var wire 1 H" \inst|ALT_INV_address\ [6] $end
$var wire 1 I" \inst|ALT_INV_address\ [5] $end
$var wire 1 J" \inst|ALT_INV_address\ [4] $end
$var wire 1 K" \inst|ALT_INV_address\ [3] $end
$var wire 1 L" \inst|ALT_INV_address\ [2] $end
$upscope $end
$upscope $end
$enddefinitions $end
#0
$dumpvars
0!
0P
1Q
xR
1S
1T
1U
1V
1W
1X
0a
xZ!
0[!
0\!
1]!
0^!
0_!
0`!
0a!
0b!
0c!
0d!
0e!
0f!
0g!
0h!
0i!
0j!
0k!
0l!
0m!
0n!
0o!
0p!
0q!
0r!
0s!
0t!
0u!
1@"
1A"
1B"
1C"
1D"
1E"
1F"
0Y
0Z
0[
0\
0]
0^
0_
0`
0b
0c
0d
0e
0f
0g
0h
0i
0j
0k
0l
0m
0n
0o
0p
0q
0r
0s
0t
0u
0v
0w
0x
0y
0z
0{
0|
0}
0~
0!!
0"!
0#!
0$!
0%!
0&!
0'!
0(!
1)!
02!
03!
04!
05!
06!
07!
08!
09!
0:!
0;!
0<!
0=!
0>!
0?!
0@!
0A!
0B!
0C!
0D!
0E!
0F!
0G!
0H!
0I!
0J!
0K!
0L!
0M!
0N!
0O!
0P!
0Q!
0R!
0S!
0T!
0U!
0V!
0W!
0X!
0Y!
0v!
0w!
0x!
0y!
0z!
0{!
0|!
0}!
0~!
0!"
0""
0#"
0$"
0%"
0&"
0'"
0("
0)"
0*"
0+"
0,"
0-"
0."
0/"
00"
01"
02"
03"
04"
05"
06"
07"
08"
09"
0:"
0;"
0<"
0="
0>"
0?"
1G"
1H"
1I"
1J"
1K"
1L"
0*!
0+!
0,!
0-!
0.!
0/!
00!
01!
0"
0#
0$
0%
0&
0'
0(
0)
0*
0+
0,
0-
0.
0/
00
01
02
03
04
05
06
07
08
09
0:
0;
0<
0=
0>
0?
0@
0A
0B
0C
0D
0E
0F
0G
0H
0I
0J
0K
0L
0M
0N
1O
$end
#10000
1!
1a
1[!
1\!
0F"
#20000
0!
0a
0[!
0\!
1F"
1^!
1?"
0D"
11!
0]!
1_!
1`
1`!
1)
0)!
0O
1(!
1N
#30000
1!
1a
1[!
1\!
0F"
1<!
1=!
1>!
1?!
1I!
1M!
1Y!
1x!
1y!
1z!
1{!
1'"
1+"
17"
1#!
1u
1q
1g
1f
1e
1d
1I
1=
19
1/
1.
1-
1,
#40000
0!
0a
0[!
0\!
1F"
0^!
1a!
1>"
0?"
0E"
1D"
01!
10!
1]!
0_!
0`!
1b!
0`
1_
1c!
1`!
0b!
0@"
0)
1(
0c!
0(!
1)!
1d!
1@"
1O
0N
1(!
1'!
0d!
1N
1M
0'!
0M
#50000
1!
1a
1[!
1\!
0F"
0>!
1D!
1F!
0M!
0Y!
0z!
1""
1$"
0+"
07"
0#!
0u
1n
1l
0f
0I
0=
16
14
0.
#60000
0!
0a
0[!
0\!
1F"
1^!
1?"
0D"
11!
0]!
1_!
1`
0`!
1b!
1)
1c!
0)!
0@"
0O
0(!
1d!
0N
1'!
1M
#70000
1!
1a
1[!
1\!
0F"
1:!
0<!
0=!
1>!
1A!
0I!
1v!
0x!
0y!
1z!
1}!
0'"
0q
1i
1f
0e
0d
1b
09
11
1.
0-
0,
1*
#80000
0!
0a
0[!
0\!
1F"
0^!
0a!
1="
0>"
0?"
1s!
0L"
1E"
1D"
01!
00!
1/!
1]!
0_!
1`!
0b!
0c!
1e!
1@"
0`
0_
1^
1f!
1c!
0e!
0`!
0d!
0@"
0A"
0)
0(
1'
0f!
0'!
1(!
1)!
1g!
1d!
1A"
1O
1N
0M
0(!
1'!
1&!
0g!
0N
1M
1L
0&!
0L
#90000
1!
1a
1[!
1\!
0F"
1H!
1W!
1&"
15"
1!!
1p
1G
18
#100000
0!
0a
0[!
0\!
1F"
1^!
1?"
0D"
11!
0]!
1_!
1`
1`!
1)
0)!
0O
1(!
1N
#110000
1!
1a
1[!
1\!
0F"
0:!
0>!
0?!
0H!
1K!
1M!
1N!
1T!
0W!
0v!
0z!
0{!
0&"
1)"
1+"
1,"
12"
05"
0!!
1|
1v
1u
1s
0p
0g
0f
0b
0G
1D
1>
1=
1;
08
0/
0.
0*
#120000
0!
0a
0[!
0\!
1F"
0^!
1a!
1>"
0?"
0E"
1D"
01!
10!
1]!
0_!
0`!
1b!
0`
1_
0c!
1e!
1`!
0b!
1@"
0)
1(
1c!
0e!
1f!
0(!
1)!
0d!
0A"
0@"
0f!
1O
0N
1(!
0'!
1d!
1g!
1A"
1N
0M
1&!
1'!
0g!
1M
1L
0&!
0L
#130000
1!
1a
1[!
1\!
0F"
1;!
1<!
1=!
1C!
0D!
0F!
0M!
1Y!
1w!
1x!
1y!
1!"
0""
0$"
0+"
17"
1#!
0u
0n
0l
1k
1e
1d
1c
1I
0=
06
04
13
1-
1,
1+
#140000
0!
0a
0[!
0\!
1F"
1^!
1?"
0D"
11!
0]!
1_!
1`
0`!
1b!
1)
0c!
1e!
0)!
1@"
1f!
0O
0(!
0d!
0A"
0N
0'!
1g!
0M
1&!
1L
#150000
1!
1a
1[!
1\!
0F"
0;!
0<!
0=!
1F!
1H!
1I!
1L!
1M!
0T!
1W!
1X!
0w!
0x!
0y!
1$"
1&"
1'"
1*"
1+"
02"
15"
16"
1"!
1!!
0|
1u
1t
1q
1p
1n
0e
0d
0c
1H
1G
0D
1=
1<
19
18
16
0-
0,
0+
#160000
0!
0a
0[!
0\!
1F"
0^!
0a!
0="
1<"
0>"
0?"
0s!
0K"
1L"
1E"
1D"
01!
00!
0/!
1.!
1]!
0_!
1`!
0b!
1c!
0e!
0f!
1h!
1A"
0@"
0`
0_
1]
0^
1i!
1f!
0h!
0c!
0`!
1d!
0g!
1@"
0A"
0B"
0)
0(
0'
1&
0i!
0&!
1'!
1(!
1)!
1j!
1g!
0d!
1B"
1O
1N
1M
0L
0(!
0'!
1&!
1%!
0j!
0N
0M
1L
1K
0%!
0K
#170000
1!
1a
1[!
1\!
0F"
0C!
1D!
0H!
0I!
0L!
1T!
0W!
0Y!
0!"
1""
0&"
0'"
0*"
12"
05"
07"
0#!
0!!
1|
0t
0q
0p
1l
0k
0I
0G
1D
0<
09
08
14
03
#180000
0!
0a
0[!
0\!
1F"
1^!
1?"
0D"
11!
0]!
1_!
1`
1`!
1)
0)!
0O
1(!
1N
#190000
1!
1a
1[!
1\!
0F"
1I!
1W!
0X!
1'"
15"
06"
0"!
1!!
1q
0H
1G
19
#200000
0!
0a
0[!
0\!
1F"
0^!
1a!
1>"
0?"
0E"
1D"
01!
10!
1]!
0_!
0`!
1b!
0`
1_
1c!
1`!
0b!
0@"
0)
1(
0c!
0(!
1)!
1d!
1@"
1O
0N
1(!
1'!
0d!
1N
1M
0'!
0M
#210000
1!
1a
1[!
1\!
0F"
0D!
1Y!
0""
17"
1#!
0l
1I
04
#220000
0!
0a
0[!
0\!
1F"
1^!
1?"
0D"
11!
0]!
1_!
1`
0`!
1b!
1)
1c!
0)!
0@"
0O
0(!
1d!
0N
1'!
1M
#230000
1!
1a
1[!
1\!
0F"
1D!
0F!
0I!
1X!
1""
0$"
0'"
16"
1"!
0q
0n
1l
1H
09
06
14
#240000
0!
0a
0[!
0\!
1F"
0^!
0a!
1="
0>"
0?"
1s!
0L"
1E"
1D"
01!
00!
1/!
1]!
0_!
1`!
0b!
0c!
1e!
1@"
0`
0_
1^
0f!
1h!
1c!
0e!
0`!
0d!
0@"
1A"
0)
0(
1'
1f!
0h!
1i!
0'!
1(!
1)!
0g!
1d!
0B"
0A"
0i!
1O
1N
0M
0(!
1'!
0&!
1g!
1j!
1B"
0N
1M
0L
1%!
1&!
0j!
1L
1K
0%!
0K
#250000
1!
1a
1[!
1\!
0F"
1F!
0Y!
1$"
07"
0#!
1n
0I
16
#260000
0!
0a
0[!
0\!
1F"
1^!
1?"
0D"
11!
0]!
1_!
1`
1`!
1)
0)!
0O
1(!
1N
#270000
1!
1a
1[!
1\!
0F"
1<!
1=!
1>!
1?!
0A!
0D!
0F!
1I!
0K!
0N!
0T!
0W!
0X!
1Y!
1x!
1y!
1z!
1{!
0}!
0""
0$"
1'"
0)"
0,"
02"
05"
06"
17"
1#!
0"!
0!!
0|
0v
0s
1q
0n
0l
0i
1g
1f
1e
1d
1I
0H
0G
0D
0>
0;
19
06
04
01
1/
1.
1-
1,
#280000
0!
0a
0[!
0\!
1F"
0^!
1a!
1>"
0?"
0E"
1D"
01!
10!
1]!
0_!
0`!
1b!
0`
1_
0c!
1e!
1`!
0b!
1@"
0)
1(
1c!
0e!
0f!
1h!
0(!
1)!
0d!
1A"
0@"
1i!
1f!
0h!
1O
0N
1(!
0'!
1d!
0g!
0A"
0B"
0i!
1N
0M
0&!
1'!
1j!
1g!
1B"
1M
0L
1&!
1%!
0j!
1L
1K
0%!
0K
#290000
1!
1a
1[!
1\!
0F"
0>!
1D!
1F!
0M!
0Y!
0z!
1""
1$"
0+"
07"
0#!
0u
1n
1l
0f
0I
0=
16
14
0.
#300000
0!
0a
0[!
0\!
1F"
1^!
1?"
0D"
11!
0]!
1_!
1`
0`!
1b!
1)
0c!
1e!
0)!
1@"
0f!
1h!
0O
0(!
0d!
1A"
1i!
0N
0'!
0g!
0B"
0M
0&!
1j!
0L
1%!
1K
#310000
1!
1a
1[!
1\!
0F"
1:!
0=!
1>!
1A!
1H!
1V!
1W!
1v!
0y!
1z!
1}!
1&"
14"
15"
1!!
1~
1p
1i
1f
0e
1b
1G
1F
18
11
1.
0-
1*
#320000
0!
0a
0[!
0\!
1F"
0^!
0a!
0="
0<"
1;"
0>"
0?"
0s!
1t!
0J"
1K"
1L"
1E"
1D"
01!
00!
0/!
0.!
1-!
1]!
0_!
1`!
0b!
1c!
0e!
1f!
0h!
0i!
1k!
1B"
0A"
0@"
0`
0_
1\
0]
0^
1l!
1i!
0k!
0f!
0c!
0`!
1d!
1g!
0j!
1@"
1A"
0B"
0C"
0)
0(
0'
0&
1%
0l!
0%!
1&!
1'!
1(!
1)!
1m!
1j!
0g!
0d!
1C"
1O
1N
1M
1L
0K
0(!
0'!
0&!
1%!
1$!
0m!
0N
0M
0L
1K
1J
0$!
0J
#330000
1!
1a
1[!
1\!
0F"
0:!
0<!
1=!
0>!
0?!
0H!
0V!
0W!
0v!
0x!
1y!
0z!
0{!
0&"
04"
05"
0!!
0~
0p
0g
0f
1e
0d
0b
0G
0F
08
0/
0.
1-
0,
0*
#340000
0!
0a
0[!
0\!
1F"
1^!
1?"
0D"
11!
0]!
1_!
1`
1`!
1)
0)!
0O
1(!
1N
#350000
1!
1a
1[!
1\!
0F"
0=!
0F!
0I!
1K!
1L!
1N!
1T!
1V!
1X!
0y!
0$"
0'"
1)"
1*"
1,"
12"
14"
16"
1"!
1~
1|
1v
1t
1s
0q
0n
0e
1H
1F
1D
1>
1<
1;
09
06
0-
#360000
0!
0a
0[!
0\!
1F"
0^!
1a!
1>"
0?"
0E"
1D"
01!
10!
1]!
0_!
0`!
1b!
0`
1_
1c!
1`!
0b!
0@"
0)
1(
0c!
0(!
1)!
1d!
1@"
1O
0N
1(!
1'!
0d!
1N
1M
0'!
0M
#370000
1!
1a
1[!
1\!
0F"
1>!
0A!
0D!
0K!
0L!
0N!
0T!
1U!
0V!
1Y!
1z!
0}!
0""
0)"
0*"
0,"
02"
13"
04"
17"
1#!
0~
1}
0|
0v
0t
0s
0l
0i
1f
1I
0F
1E
0D
0>
0<
0;
04
01
1.
#380000
0!
0a
0[!
0\!
1F"
1^!
1?"
0D"
11!
0]!
1_!
1`
0`!
1b!
1)
1c!
0)!
0@"
0O
0(!
1d!
0N
1'!
1M
#390000
1!
1a
1[!
1\!
0F"
0X!
0Y!
06"
07"
0#!
0"!
0I
0H
#400000
0!
0a
0[!
0\!
1F"
0^!
0a!
1="
0>"
0?"
1s!
0L"
1E"
1D"
01!
00!
1/!
1]!
0_!
1`!
0b!
0c!
1e!
1@"
0`
0_
1^
1f!
1c!
0e!
0`!
0d!
0@"
0A"
0)
0(
1'
0f!
0'!
1(!
1)!
1g!
1d!
1A"
1O
1N
0M
0(!
1'!
1&!
0g!
0N
1M
1L
0&!
0L
#410000
1!
1a
1[!
1\!
0F"
0>!
1A!
1C!
1D!
1F!
1H!
1I!
1K!
1M!
1N!
1T!
0U!
1Y!
0z!
1}!
1!"
1""
1$"
1&"
1'"
1)"
1+"
1,"
12"
03"
17"
1#!
0}
1|
1v
1u
1s
1q
1p
1n
1l
1k
1i
0f
1I
0E
1D
1>
1=
1;
19
18
16
14
13
11
0.
#420000
0!
0a
0[!
0\!
1F"
1^!
1?"
0D"
11!
0]!
1_!
1`
1`!
1)
0)!
0O
1(!
1N
#430000
1!
1a
1[!
1\!
0F"
1B!
0C!
1G!
0H!
1L!
0M!
1X!
1~!
0!"
1%"
0&"
1*"
0+"
16"
1"!
0u
1t
0p
1o
0k
1j
1H
0=
1<
08
17
03
12
#440000
0!
0a
0[!
0\!
1F"
0^!
1a!
1>"
0?"
0E"
1D"
01!
10!
1]!
0_!
0`!
1b!
0`
1_
0c!
1e!
1`!
0b!
1@"
0)
1(
1c!
0e!
1f!
0(!
1)!
0d!
0A"
0@"
0f!
1O
0N
1(!
0'!
1d!
1g!
1A"
1N
0M
1&!
1'!
0g!
1M
1L
0&!
0L
#450000
1!
1a
1[!
1\!
0F"
0A!
0B!
0D!
0G!
1J!
0L!
0N!
1Q!
0T!
0Y!
0}!
0~!
0""
0%"
1("
0*"
0,"
1/"
02"
07"
0#!
0|
1y
0v
0t
1r
0o
0l
0j
0i
0I
0D
1A
0>
0<
1:
07
04
02
01
#460000
0!
0a
0[!
0\!
1F"
1^!
1?"
0D"
11!
0]!
1_!
1`
0`!
1b!
1)
0c!
1e!
0)!
1@"
1f!
0O
0(!
0d!
0A"
0N
0'!
1g!
0M
1&!
1L
#470000
1!
1a
1[!
1\!
0F"
1E!
0I!
0J!
1L!
1N!
1O!
1P!
1R!
0X!
1#"
0'"
0("
1*"
1,"
1-"
1."
10"
06"
0"!
1z
1x
1w
1v
1t
0r
0q
1m
0H
1B
1@
1?
1>
1<
0:
09
15
#480000
0!
0a
0[!
0\!
1F"
0^!
0a!
0="
1<"
0>"
0?"
0s!
0K"
1L"
1E"
1D"
01!
00!
0/!
1.!
1]!
0_!
1`!
0b!
1c!
0e!
0f!
1h!
1A"
0@"
0`
0_
1]
0^
0i!
1k!
1f!
0h!
0c!
0`!
1d!
0g!
1@"
0A"
1B"
0)
0(
0'
1&
1i!
0k!
1l!
0&!
1'!
1(!
1)!
0j!
1g!
0d!
0C"
0B"
0l!
1O
1N
1M
0L
0(!
0'!
1&!
0%!
1j!
1m!
1C"
0N
0M
1L
0K
1$!
1%!
0m!
1K
1J
0$!
0J
#490000
1!
1a
1[!
1\!
0F"
1<!
1A!
1C!
0E!
1G!
1I!
0K!
0L!
0N!
0O!
0P!
1U!
1x!
1}!
1!"
0#"
1%"
1'"
0)"
0*"
0,"
0-"
0."
13"
1}
0x
0w
0v
0t
0s
1q
1o
0m
1k
1i
1d
1E
0@
0?
0>
0<
0;
19
17
05
13
11
1,
#500000
0!
0a
0[!
0\!
1F"
1^!
1?"
0D"
11!
0]!
1_!
1`
1`!
1)
0)!
0O
1(!
1N
